<svg xmlns="http://www.w3.org/2000/svg" xmlns:xlink="http://www.w3.org/1999/xlink" width="1092" height="722" viewBox="0 0 1092 722">
  <defs>
    <path id="right-mask-a" d="M17.4578668,138.532349 L1092,0.83402167 L1092,722.166344 L17.4727688,585.290243 C7.48487888,584.01796 4.52427685e-13,575.519156 4.51194637e-13,565.450558 L4.51194637e-13,158.37013 C4.4996229e-13,148.307254 7.47661016,139.811408 17.4578668,138.532349 Z"/>
  </defs>
  <use fill="#D8D8D8" fill-rule="evenodd" transform="translate(0 -1)" xlink:href="#right-mask-a"/>
</svg>
