<svg xmlns="http://www.w3.org/2000/svg" width="24" height="24" viewBox="0 0 24 24">
  <path fill="none" stroke="#33A7D8" d="M15.2908939,4.06479714 L12,7.71947253 L8.70910607,4.06479714 C8.60259869,3.94651623 8.48997345,3.83389099 8.37169254,3.7273836 C6.49957207,2.04161148 3.61533025,2.19267667 1.92955813,4.06479714 L1.78350687,4.22699317 C-0.100253032,6.31898735 -0.100253032,9.49569435 1.78350687,11.5876885 L9.73041597,20.4130636 C9.78878872,20.4778889 9.85051442,20.5396147 9.91533979,20.5979874 C10.4705918,21.0979704 11.2054004,21.3168043 11.9316231,21.2165488 L12.0683769,21.2165488 C12.7945996,21.3168043 13.5294082,21.0979704 14.0846602,20.5979874 C14.1494856,20.5396147 14.2112113,20.4778889 14.269584,20.4130636 L22.2164931,11.5876885 C24.100253,9.49569435 24.100253,6.31898735 22.2164931,4.22699317 L22.0704419,4.06479714 C20.3846698,2.19267667 17.5004279,2.04161148 15.6283075,3.7273836 C15.5100265,3.83389099 15.3974013,3.94651623 15.2908939,4.06479714 Z"/>
</svg>
