<svg xmlns="http://www.w3.org/2000/svg" width="24" height="24" viewBox="0 0 24 24">
  <g fill="none" fill-rule="evenodd">
    <rect width="24" height="24" fill="#02A2F5"/>
    <path fill="#FFF" fill-rule="nonzero" d="M17.5828189,9.06151539 C17.5872381,9.17817728 17.5895438,9.29504136 17.5895438,9.412512 C17.5895438,13.633772 14.5370037,18 9.42874962,18 C7.86722172,18 6.34681194,17.5311284 5.03199277,16.6437297 C5.00451664,16.6253307 4.99318034,16.5895436 5.00413236,16.5573958 C5.01508438,16.5254503 5.04601905,16.505636 5.07772227,16.5094775 C5.29829985,16.5371771 5.5238731,16.5509258 5.74771707,16.5509258 C6.96262305,16.5509258 8.1127776,16.1556503 9.08558623,15.4057387 C7.919484,15.302219 6.91727784,14.471837 6.55682178,13.2872235 C6.5493283,13.2625567 6.55470824,13.2356658 6.57084806,13.2162558 C6.58718002,13.1968459 6.61215832,13.188354 6.63598377,13.1930043 C6.95916452,13.257502 7.28772521,13.2617479 7.60437317,13.2075618 C6.4017642,12.8143081 5.55653703,11.6288858 5.55653703,10.2792876 L5.55692131,10.2400634 C5.55749773,10.2143856 5.57075544,10.1909319 5.59189092,10.1781941 C5.61283427,10.1652542 5.63896541,10.165052 5.66010089,10.1775876 C5.9736746,10.360769 6.3206808,10.4784418 6.67671761,10.5235295 C5.98558733,9.94385941 5.57978606,9.06515476 5.57978606,8.12518744 C5.57978606,7.58292194 5.71620599,7.04995704 5.97444316,6.58391603 C5.98597161,6.56309077 6.00633853,6.54974642 6.02901114,6.54792674 C6.05187589,6.5455005 6.07397207,6.55601422 6.08838263,6.57461542 C7.50292285,8.40036394 9.58361506,9.5245236 11.808605,9.66908729 C11.7715218,9.47256154 11.752692,9.26997018 11.752692,9.06555913 C11.752692,7.37507371 13.0596334,6 14.6659301,6 C15.4556286,6 16.2188117,6.34149382 16.7658364,6.93834982 C17.3824161,6.80611953 17.9697904,6.56753888 18.5123958,6.22907786 C18.537182,6.21350946 18.5683088,6.2159357 18.5911736,6.23473909 C18.6134619,6.25374467 18.6226846,6.28528584 18.6138462,6.31440077 C18.4299675,6.91954643 18.0714328,7.44745666 17.589736,7.82857913 C18.0433803,7.74548028 18.4835747,7.60516251 18.9022494,7.40964769 C18.930302,7.39610116 18.9635423,7.40459301 18.9837171,7.42946201 C19.0036998,7.4545332 19.005429,7.4903203 18.9881364,7.51741335 C18.606737,8.1181109 18.1340707,8.63752927 17.5828189,9.06151539 Z"/>
  </g>
</svg>
